G:\awa-consulting\benameuroussama\plenar-reader\src\main\java\dbt\protokoll\domain\Kommentar.java
G:\awa-consulting\benameuroussama\plenar-reader\src\main\java\dbt\protokoll\domain\Datum.java
G:\awa-consulting\benameuroussama\plenar-reader\src\main\java\dbt\protokoll\domain\RolleLang.java
G:\awa-consulting\benameuroussama\plenar-reader\src\main\java\dbt\protokoll\domain\Anlagen.java
G:\awa-consulting\benameuroussama\plenar-reader\src\main\java\dbt\protokoll\domain\Wahlperiode.java
G:\awa-consulting\benameuroussama\plenar-reader\src\main\java\dbt\protokoll\domain\Th.java
G:\awa-consulting\benameuroussama\plenar-reader\src\main\java\dbt\protokoll\domain\Caption.java
G:\awa-consulting\benameuroussama\plenar-reader\src\main\java\dbt\protokoll\domain\IvzEintragInhalt.java
G:\awa-consulting\benameuroussama\plenar-reader\src\main\java\dbt\protokoll\domain\IvzBlock.java
G:\awa-consulting\benameuroussama\plenar-reader\src\main\java\dbt\protokoll\domain\Zitat.java
G:\awa-consulting\benameuroussama\plenar-reader\src\main\java\dbt\protokoll\domain\Seite.java
G:\awa-consulting\benameuroussama\plenar-reader\src\main\java\dbt\protokoll\domain\Sub.java
G:\awa-consulting\benameuroussama\plenar-reader\src\main\java\dbt\protokoll\domain\Sitzungsnr.java
G:\awa-consulting\benameuroussama\plenar-reader\src\main\java\dbt\protokoll\domain\Seitenbereich.java
G:\awa-consulting\benameuroussama\plenar-reader\src\main\java\dbt\protokoll\domain\Name.java
G:\awa-consulting\benameuroussama\plenar-reader\src\main\java\dbt\protokoll\domain\Anlage.java
G:\awa-consulting\benameuroussama\plenar-reader\src\main\java\dbt\protokoll\domain\RolleKurz.java
G:\awa-consulting\benameuroussama\plenar-reader\src\main\java\dbt\protokoll\domain\Sitzungsbeginn.java
G:\awa-consulting\benameuroussama\plenar-reader\src\main\java\dbt\protokoll\domain\Tbody.java
G:\awa-consulting\benameuroussama\plenar-reader\src\main\java\dbt\protokoll\domain\Namenszusatz.java
G:\awa-consulting\benameuroussama\plenar-reader\src\main\java\dbt\protokoll\domain\A.java
G:\awa-consulting\benameuroussama\plenar-reader\src\main\java\io\PlenarProtokollAnswerWriterImpl.java
G:\awa-consulting\benameuroussama\plenar-reader\src\main\java\io\interfaces\PlenarProtokollFilesDatabase.java
G:\awa-consulting\benameuroussama\plenar-reader\src\main\java\dbt\protokoll\domain\Fraktion.java
G:\awa-consulting\benameuroussama\plenar-reader\src\main\java\dbt\protokoll\domain\Rednerliste.java
G:\awa-consulting\benameuroussama\plenar-reader\src\main\java\dbt\protokoll\domain\ObjectFactory.java
G:\awa-consulting\benameuroussama\plenar-reader\src\main\java\dbt\protokoll\domain\Sup.java
G:\awa-consulting\benameuroussama\plenar-reader\src\main\java\io\interfaces\PlenarProtokollAnswerWriter.java
G:\awa-consulting\benameuroussama\plenar-reader\src\main\java\dbt\protokoll\domain\TopTitel.java
G:\awa-consulting\benameuroussama\plenar-reader\src\main\java\dbt\protokoll\domain\Vorspann.java
G:\awa-consulting\benameuroussama\plenar-reader\src\main\java\dbt\protokoll\domain\Xref.java
G:\awa-consulting\benameuroussama\plenar-reader\src\main\java\dbt\protokoll\domain\AnlagenText.java
G:\awa-consulting\benameuroussama\plenar-reader\src\main\java\controller\DatabaseQuery.java
G:\awa-consulting\benameuroussama\plenar-reader\src\main\java\dbt\protokoll\domain\Titel.java
G:\awa-consulting\benameuroussama\plenar-reader\src\main\java\view\PlenarReaderView.java
G:\awa-consulting\benameuroussama\plenar-reader\src\main\java\dbt\protokoll\domain\Sitzungsverlauf.java
G:\awa-consulting\benameuroussama\plenar-reader\src\main\java\dbt\protokoll\domain\Thead.java
G:\awa-consulting\benameuroussama\plenar-reader\src\main\java\dbt\protokoll\domain\Col.java
G:\awa-consulting\benameuroussama\plenar-reader\src\main\java\dbt\protokoll\domain\P.java
G:\awa-consulting\benameuroussama\plenar-reader\src\main\java\dbt\protokoll\domain\IvzEintrag.java
G:\awa-consulting\benameuroussama\plenar-reader\src\main\java\dbt\protokoll\domain\Td.java
G:\awa-consulting\benameuroussama\plenar-reader\src\main\java\dbt\protokoll\domain\Tfoot.java
G:\awa-consulting\benameuroussama\plenar-reader\src\main\java\dbt\protokoll\domain\Colgroup.java
G:\awa-consulting\benameuroussama\plenar-reader\src\main\java\dbt\protokoll\domain\Inhaltsverzeichnis.java
G:\awa-consulting\benameuroussama\plenar-reader\src\main\java\dbt\protokoll\domain\Kopfdaten.java
G:\awa-consulting\benameuroussama\plenar-reader\src\main\java\dbt\protokoll\domain\Rede.java
G:\awa-consulting\benameuroussama\plenar-reader\src\main\java\view\PlenarRendererView.java
G:\awa-consulting\benameuroussama\plenar-reader\src\main\java\dbt\protokoll\domain\Tagesordnungspunkt.java
G:\awa-consulting\benameuroussama\plenar-reader\src\main\java\dbt\protokoll\domain\Nachname.java
G:\awa-consulting\benameuroussama\plenar-reader\src\main\java\dbt\protokoll\domain\Ort.java
G:\awa-consulting\benameuroussama\plenar-reader\src\main\java\dbt\protokoll\domain\Bdland.java
G:\awa-consulting\benameuroussama\plenar-reader\src\main\java\io\PlenarProtokollFileDatabaseImpl.java
G:\awa-consulting\benameuroussama\plenar-reader\src\main\java\dbt\protokoll\domain\Fussnote.java
G:\awa-consulting\benameuroussama\plenar-reader\src\main\java\dbt\protokoll\domain\Tr.java
G:\awa-consulting\benameuroussama\plenar-reader\src\main\java\dbt\protokoll\domain\Rolle.java
G:\awa-consulting\benameuroussama\plenar-reader\src\main\java\dbt\protokoll\domain\Sitzungsende.java
G:\awa-consulting\benameuroussama\plenar-reader\src\main\java\dbt\protokoll\domain\Vorname.java
G:\awa-consulting\benameuroussama\plenar-reader\src\main\java\dbt\protokoll\domain\Table.java
G:\awa-consulting\benameuroussama\plenar-reader\src\main\java\dbt\protokoll\domain\Ortszusatz.java
G:\awa-consulting\benameuroussama\plenar-reader\src\main\java\dbt\protokoll\domain\Redner.java
G:\awa-consulting\benameuroussama\plenar-reader\src\main\java\dbt\protokoll\domain\Dbtplenarprotokoll.java
G:\awa-consulting\benameuroussama\plenar-reader\src\main\java\PlenarReader.java
